{
  "devToolsPort": 19002,
  "expoServerPort": 19000,
  "packagerPort": 19000,
  "webpackServerPort": null,
  "packagerPid": null,
  "expoServerNgrokUrl": "https://j3-9fx.hatik.neptyx-rn.exp.direct",
  "packagerNgrokUrl": "https://packager.j3-9fx.hatik.neptyx-rn.exp.direct",
  "ngrokPid": 1268
}
